﻿<Cube xmlns:xsd="http://www.w3.org/2001/XMLSchema" xmlns:xsi="http://www.w3.org/2001/XMLSchema-instance" xmlns:ddl2="http://schemas.microsoft.com/analysisservices/2003/engine/2" xmlns:ddl2_2="http://schemas.microsoft.com/analysisservices/2003/engine/2/2" xmlns:ddl100_100="http://schemas.microsoft.com/analysisservices/2008/engine/100/100" xmlns:ddl200="http://schemas.microsoft.com/analysisservices/2010/engine/200" xmlns:ddl200_200="http://schemas.microsoft.com/analysisservices/2010/engine/200/200" xmlns:dwd="http://schemas.microsoft.com/DataWarehouse/Designer/1.0" dwd:design-time-name="459a1e0d-ee94-47f1-bbba-9280f902478b" xmlns="http://schemas.microsoft.com/analysisservices/2003/engine">
  <ID>Northwind DW</ID>
  <Name>Northwind DW</Name>
  <CreatedTimestamp>0001-01-01T03:00:00Z</CreatedTimestamp>
  <LastSchemaUpdate>0001-01-01T03:00:00Z</LastSchemaUpdate>
  <Annotations>
    <Annotation>
      <Name>http://schemas.microsoft.com/DataWarehouse/Designer/1.0:DiagramLayout</Name>
      <Value>
        <dds xmlns="">
          <diagram fontclsid="{0BE35203-8F91-11CE-9DE3-00AA004BB851}" mouseiconclsid="{0BE35204-8F91-11CE-9DE3-00AA004BB851}" defaultlayout="MSDDS.Rectilinear" defaultlineroute="MSDDS.Rectilinear" version="7" nextobject="20" scale="100" pagebreakanchorx="0" pagebreakanchory="0" pagebreaksizex="0" pagebreaksizey="0" scrollleft="-7519" scrolltop="4088" gridx="150" gridy="150" marginx="5000" marginy="5000" zoom="75" x="21722" y="12409" backcolor="15334399" defaultpersistence="2" PrintPageNumbersMode="3" PrintMarginTop="0" PrintMarginBottom="635" PrintMarginLeft="0" PrintMarginRight="0" marqueeselectionmode="0" mousepointer="0" snaptogrid="0" autotypeannotation="1" showscrollbars="1" viewpagebreaks="0" donotforceconnectorsbehindshapes="1" backpictureclsid="{00000000-0000-0000-0000-000000000000}">
            <font>
              <ddsxmlobjectstreamwrapper binary="01000000900144420100065461686f6d61" />
            </font>
            <mouseicon>
              <ddsxmlobjectstreamwrapper binary="6c74000000000000" />
            </mouseicon>
          </diagram>
          <layoutmanager>
            <ddsxmlobj />
          </layoutmanager>
          <ddscontrol controlprogid="DdsShapes.DdsObjectManagedBridge.2" tooltip="Customer_Dim" left="-2803" top="12706" logicalid="10" controlid="1" masterid="0" hint1="0" hint2="0" width="3122" height="3572" noresize="0" nomove="0" nodefaultattachpoints="0" autodrag="1" usedefaultiddshape="1" selectable="1" showselectionhandles="1" allownudging="1" isannotation="0" dontautolayout="0" groupcollapsed="0" tabstop="1" visible="1" snaptogrid="0">
            <control>
              <ddsxmlobjectstreaminitwrapper binary="00080000320c0000f40d0000" />
            </control>
            <layoutobject>
              <ddsxmlobj>
                <property name="LogicalObject" value="dbo_Customer_Dim" vartype="8" />
              </ddsxmlobj>
            </layoutobject>
            <shape groupshapeid="0" groupnode="0" />
          </ddscontrol>
          <ddscontrol controlprogid="DdsShapes.DdsObjectManagedBridge.2" tooltip="Employee_Dim" left="5295" top="5596" logicalid="11" controlid="2" masterid="0" hint1="0" hint2="0" width="3000" height="3572" noresize="0" nomove="0" nodefaultattachpoints="0" autodrag="1" usedefaultiddshape="1" selectable="1" showselectionhandles="1" allownudging="1" isannotation="0" dontautolayout="0" groupcollapsed="0" tabstop="1" visible="1" snaptogrid="0">
            <control>
              <ddsxmlobjectstreaminitwrapper binary="00080000b80b0000f40d0000" />
            </control>
            <layoutobject>
              <ddsxmlobj>
                <property name="LogicalObject" value="dbo_Employee_Dim" vartype="8" />
              </ddsxmlobj>
            </layoutobject>
            <shape groupshapeid="0" groupnode="0" />
          </ddscontrol>
          <ddscontrol controlprogid="DdsShapes.DdsObjectManagedBridge.2" tooltip="Date_Dim" left="4845" top="19815" logicalid="12" controlid="3" masterid="0" hint1="0" hint2="0" width="4604" height="12725" noresize="0" nomove="0" nodefaultattachpoints="0" autodrag="1" usedefaultiddshape="1" selectable="1" showselectionhandles="1" allownudging="1" isannotation="0" dontautolayout="0" groupcollapsed="0" tabstop="1" visible="1" snaptogrid="0">
            <control>
              <ddsxmlobjectstreaminitwrapper binary="00080000fc110000b5310000" />
            </control>
            <layoutobject>
              <ddsxmlobj>
                <property name="LogicalObject" value="dbo_Date_Dim" vartype="8" />
              </ddsxmlobj>
            </layoutobject>
            <shape groupshapeid="0" groupnode="0" />
          </ddscontrol>
          <ddscontrol controlprogid="DdsShapes.DdsObjectManagedBridge.2" tooltip="Product_Dim" left="12387" top="12212" logicalid="13" controlid="4" masterid="0" hint1="0" hint2="0" width="3175" height="2725" noresize="0" nomove="0" nodefaultattachpoints="0" autodrag="1" usedefaultiddshape="1" selectable="1" showselectionhandles="1" allownudging="1" isannotation="0" dontautolayout="0" groupcollapsed="0" tabstop="1" visible="1" snaptogrid="0">
            <control>
              <ddsxmlobjectstreaminitwrapper binary="00080000670c0000a50a0000" />
            </control>
            <layoutobject>
              <ddsxmlobj>
                <property name="LogicalObject" value="dbo_Product_Dim" vartype="8" />
              </ddsxmlobj>
            </layoutobject>
            <shape groupshapeid="0" groupnode="0" />
          </ddscontrol>
          <ddscontrol controlprogid="DdsShapes.DdsObjectManagedBridge.2" tooltip="Order_Fact" left="4626" top="11464" logicalid="14" controlid="5" masterid="0" hint1="0" hint2="0" width="3952" height="7328" noresize="0" nomove="0" nodefaultattachpoints="0" autodrag="1" usedefaultiddshape="1" selectable="1" showselectionhandles="1" allownudging="1" isannotation="0" dontautolayout="0" groupcollapsed="0" tabstop="1" visible="1" snaptogrid="0">
            <control>
              <ddsxmlobjectstreaminitwrapper binary="00080000700f0000a01c0000" />
            </control>
            <layoutobject>
              <ddsxmlobj>
                <property name="LogicalObject" value="dbo_Order_Fact" vartype="8" />
              </ddsxmlobj>
            </layoutobject>
            <shape groupshapeid="0" groupnode="0" />
          </ddscontrol>
          <ddscontrol controlprogid="MSDDS.Polyline" left="8278" top="12075" logicalid="15" controlid="6" masterid="0" hint1="0" hint2="0" width="4409" height="799" noresize="0" nomove="0" nodefaultattachpoints="1" autodrag="0" usedefaultiddshape="0" selectable="1" showselectionhandles="0" allownudging="1" isannotation="0" dontautolayout="0" groupcollapsed="0" tabstop="1" visible="1" snaptogrid="0">
            <control>
              <ddsxmlobj>
                <polyline endtypedst="6" endtypesrc="3" usercolor="0" linestyle="0" linerender="1" customendtypedstid="0" customendtypesrcid="0" adornsvisible="1" />
              </ddsxmlobj>
            </control>
            <layoutobject>
              <ddsxmlobj>
                <property name="LogicalObject" value="dataSet.Relations[FK_product]" vartype="8" />
                <property name="Virtual" value="0" vartype="11" />
                <property name="VisibleAP" value="0" vartype="3" />
              </ddsxmlobj>
            </layoutobject>
            <connector lineroutestyle="MSDDS.Rectilinear" sourceid="4" destid="5" sourceattachpoint="10" destattachpoint="17" segmenteditmode="0" bendpointeditmode="0" bendpointvisibility="0" relatedid="0" virtual="0">
              <point x="12387" y="12474" />
              <point x="10483" y="12474" />
              <point x="10483" y="12378" />
              <point x="8578" y="12378" />
            </connector>
          </ddscontrol>
          <ddscontrol controlprogid="MSDDS.Polyline" left="19" top="12443" logicalid="16" controlid="7" masterid="0" hint1="0" hint2="0" width="4907" height="799" noresize="0" nomove="0" nodefaultattachpoints="1" autodrag="0" usedefaultiddshape="0" selectable="1" showselectionhandles="0" allownudging="1" isannotation="0" dontautolayout="0" groupcollapsed="0" tabstop="1" visible="1" snaptogrid="0">
            <control>
              <ddsxmlobj>
                <polyline endtypedst="6" endtypesrc="3" usercolor="0" linestyle="0" linerender="1" customendtypedstid="0" customendtypesrcid="0" adornsvisible="1" />
              </ddsxmlobj>
            </control>
            <layoutobject>
              <ddsxmlobj>
                <property name="LogicalObject" value="dataSet.Relations[FK_customer]" vartype="8" />
                <property name="Virtual" value="0" vartype="11" />
                <property name="VisibleAP" value="0" vartype="3" />
              </ddsxmlobj>
            </layoutobject>
            <connector lineroutestyle="MSDDS.Rectilinear" sourceid="1" destid="5" sourceattachpoint="11" destattachpoint="18" segmenteditmode="0" bendpointeditmode="0" bendpointvisibility="0" relatedid="0" virtual="0">
              <point x="319" y="12842" />
              <point x="2472" y="12842" />
              <point x="2472" y="12928" />
              <point x="4626" y="12928" />
            </connector>
          </ddscontrol>
          <ddscontrol controlprogid="MSDDS.Polyline" left="5202" top="8669" logicalid="17" controlid="8" masterid="0" hint1="0" hint2="0" width="893" height="3095" noresize="0" nomove="0" nodefaultattachpoints="1" autodrag="0" usedefaultiddshape="0" selectable="1" showselectionhandles="0" allownudging="1" isannotation="0" dontautolayout="0" groupcollapsed="0" tabstop="1" visible="1" snaptogrid="0">
            <control>
              <ddsxmlobj>
                <polyline endtypedst="6" endtypesrc="3" usercolor="0" linestyle="0" linerender="1" customendtypedstid="0" customendtypesrcid="0" adornsvisible="1" />
              </ddsxmlobj>
            </control>
            <layoutobject>
              <ddsxmlobj>
                <property name="LogicalObject" value="dataSet.Relations[FK_employee]" vartype="8" />
                <property name="Virtual" value="0" vartype="11" />
                <property name="VisibleAP" value="0" vartype="3" />
              </ddsxmlobj>
            </layoutobject>
            <connector lineroutestyle="MSDDS.Rectilinear" sourceid="2" destid="5" sourceattachpoint="1" destattachpoint="2" segmenteditmode="0" bendpointeditmode="0" bendpointvisibility="0" relatedid="0" virtual="0">
              <point x="5695" y="9168" />
              <point x="5695" y="10316" />
              <point x="5502" y="10316" />
              <point x="5502" y="11464" />
            </connector>
          </ddscontrol>
          <ddscontrol controlprogid="MSDDS.Polyline" left="4548" top="18492" logicalid="18" controlid="9" masterid="0" hint1="0" hint2="0" width="799" height="1823" noresize="0" nomove="0" nodefaultattachpoints="1" autodrag="0" usedefaultiddshape="0" selectable="1" showselectionhandles="0" allownudging="1" isannotation="0" dontautolayout="0" groupcollapsed="0" tabstop="1" visible="1" snaptogrid="0">
            <control>
              <ddsxmlobj>
                <polyline endtypedst="6" endtypesrc="3" usercolor="0" linestyle="0" linerender="1" customendtypedstid="0" customendtypesrcid="0" adornsvisible="1" />
              </ddsxmlobj>
            </control>
            <layoutobject>
              <ddsxmlobj>
                <property name="LogicalObject" value="dataSet.Relations[FK_date]" vartype="8" />
                <property name="Virtual" value="0" vartype="11" />
                <property name="VisibleAP" value="0" vartype="3" />
              </ddsxmlobj>
            </layoutobject>
            <connector lineroutestyle="MSDDS.Rectilinear" sourceid="3" destid="5" sourceattachpoint="0" destattachpoint="1" segmenteditmode="0" bendpointeditmode="0" bendpointvisibility="0" relatedid="0" virtual="0">
              <point x="4947" y="19815" />
              <point x="4947" y="19304" />
              <point x="4952" y="19304" />
              <point x="4952" y="18792" />
            </connector>
          </ddscontrol>
        </dds>
      </Value>
    </Annotation>
    <Annotation>
      <Name>http://schemas.microsoft.com/DataWarehouse/Designer/1.0:ShowFriendlyNames</Name>
      <Value>true</Value>
    </Annotation>
    <Annotation>
      <Name>http://schemas.microsoft.com/DataWarehouse/Designer/1.0:ShowRelationshipNames</Name>
      <Value>false</Value>
    </Annotation>
    <Annotation>
      <Name>http://schemas.microsoft.com/DataWarehouse/Designer/1.0:UseDiagramDefaultLayout</Name>
      <Value>true</Value>
    </Annotation>
    <Annotation>
      <Name>http://schemas.microsoft.com/DataWarehouse/Designer/1.0:DiagramViewPortLeft</Name>
      <Value>-7519</Value>
    </Annotation>
    <Annotation>
      <Name>http://schemas.microsoft.com/DataWarehouse/Designer/1.0:DiagramViewPortTop</Name>
      <Value>4088</Value>
    </Annotation>
    <Annotation>
      <Name>http://schemas.microsoft.com/DataWarehouse/Designer/1.0:DiagramBoundingLeft</Name>
      <Value>-2803</Value>
    </Annotation>
    <Annotation>
      <Name>http://schemas.microsoft.com/DataWarehouse/Designer/1.0:DiagramBoundingTop</Name>
      <Value>5596</Value>
    </Annotation>
    <Annotation>
      <Name>http://schemas.microsoft.com/DataWarehouse/Designer/1.0:DiagramZoom</Name>
      <Value>75</Value>
    </Annotation>
  </Annotations>
  <LastProcessed>0001-01-01T03:00:00Z</LastProcessed>
  <State>Unprocessed</State>
  <Dimensions>
    <Dimension dwd:design-time-name="4de0ab6c-58d2-4763-ba8e-81437c3082ac">
      <ID>Product Dim</ID>
      <Name>Product Dim</Name>
      <DimensionID>Product Dim</DimensionID>
      <Attributes>
        <Attribute dwd:design-time-name="cd03e5ea-d2d4-4ad2-b5a6-4a7ca0a6257e">
          <AttributeID>Product ID</AttributeID>
        </Attribute>
        <Attribute dwd:design-time-name="ea369470-2ee7-42bf-aca6-2e9915370f89">
          <AttributeID>Product Name</AttributeID>
        </Attribute>
        <Attribute dwd:design-time-name="2b7b1c0a-6daf-4223-a41d-001d0e0a00be">
          <AttributeID>Quantity Per Unit</AttributeID>
        </Attribute>
      </Attributes>
    </Dimension>
    <Dimension dwd:design-time-name="0adcca42-6265-4a39-829e-f670f1286865">
      <ID>Customer Dim</ID>
      <Name>Customer Dim</Name>
      <DimensionID>Customer Dim</DimensionID>
      <Attributes>
        <Attribute dwd:design-time-name="006c28e3-db6b-4fd7-bfd3-bc41f873bf59">
          <AttributeID>Customer ID</AttributeID>
        </Attribute>
        <Attribute dwd:design-time-name="b898a336-498b-49cf-a8d7-8924d61d2dd7">
          <AttributeID>Contact Name</AttributeID>
        </Attribute>
        <Attribute dwd:design-time-name="a2b8884f-6731-4298-a77d-cae09076a8c9">
          <AttributeID>Company Name</AttributeID>
        </Attribute>
      </Attributes>
    </Dimension>
    <Dimension dwd:design-time-name="a064739b-4617-4075-a11e-1b8cc28dd4f7">
      <ID>Employee Dim</ID>
      <Name>Employee Dim</Name>
      <DimensionID>Employee Dim</DimensionID>
      <Attributes>
        <Attribute dwd:design-time-name="94069d22-df87-4a9d-acb4-b01b091fe7c1">
          <AttributeID>Employee ID</AttributeID>
        </Attribute>
        <Attribute dwd:design-time-name="8556786a-9b5a-42db-a032-78a8f7b3bf0e">
          <AttributeID>Last Name</AttributeID>
        </Attribute>
        <Attribute dwd:design-time-name="e12ae8cb-ecc7-4f11-a721-faeec6241e2b">
          <AttributeID>First Name</AttributeID>
        </Attribute>
        <Attribute dwd:design-time-name="d99ecd42-986d-4367-b9c6-3464baf20c78">
          <AttributeID>Full Name</AttributeID>
        </Attribute>
      </Attributes>
    </Dimension>
    <Dimension dwd:design-time-name="1b11cab5-536e-4598-b5f2-354440bc6c2b">
      <ID>Date Dim</ID>
      <Name>Date Dim</Name>
      <DimensionID>Date Dim</DimensionID>
      <Attributes>
        <Attribute dwd:design-time-name="bb8ecd83-713e-4900-8a6d-86350ef8c6fb">
          <AttributeID>Date Key</AttributeID>
        </Attribute>
        <Attribute dwd:design-time-name="85df8722-201f-41f4-b03c-508c8df04a1d">
          <AttributeID>Week Day Name</AttributeID>
        </Attribute>
        <Attribute dwd:design-time-name="6e396b5c-1bb1-4a5e-9d92-a98a7380564b">
          <AttributeID>Month Name</AttributeID>
        </Attribute>
        <Attribute dwd:design-time-name="615c25b4-f5b5-49b7-98a0-6e07822b5711">
          <AttributeID>Year</AttributeID>
        </Attribute>
        <Attribute dwd:design-time-name="4ebb9ae8-1852-4db2-9391-46a57096986f">
          <AttributeID>Day</AttributeID>
        </Attribute>
        <Attribute dwd:design-time-name="9362c9a6-07fa-4ab7-ba42-447bce531da8">
          <AttributeID>Month</AttributeID>
        </Attribute>
      </Attributes>
    </Dimension>
  </Dimensions>
  <MeasureGroups>
    <MeasureGroup dwd:design-time-name="59f431e0-4dfe-4fab-9500-5e7ecb9ded20">
      <ID>Order Fact</ID>
      <Name>Order Fact</Name>
      <CreatedTimestamp>0001-01-01T03:00:00Z</CreatedTimestamp>
      <LastSchemaUpdate>0001-01-01T03:00:00Z</LastSchemaUpdate>
      <LastProcessed>0001-01-01T03:00:00Z</LastProcessed>
      <State>Unprocessed</State>
      <Measures>
        <Measure dwd:design-time-name="4c90c09f-2aec-44ce-a55b-bd8c62ec48a7">
          <ID>Ship Via</ID>
          <Name>Ship Via</Name>
          <Source dwd:design-time-name="efa0fba0-81fa-4005-bf03-c9b225ba26b0">
            <DataType>Integer</DataType>
            <Source xsi:type="ColumnBinding" dwd:design-time-name="2d5db852-9835-4623-8080-b5fe7f156c52">
              <TableID>dbo_Order_Fact</TableID>
              <ColumnID>ShipVia</ColumnID>
            </Source>
          </Source>
        </Measure>
        <Measure dwd:design-time-name="e6766e34-2cb5-46d9-a151-c573ecb5d017">
          <ID>Quantity</ID>
          <Name>Quantity</Name>
          <Source dwd:design-time-name="137ca287-af72-4103-b7f7-2fa7accbab48">
            <DataType>Integer</DataType>
            <Source xsi:type="ColumnBinding" dwd:design-time-name="e15c6e15-2cc1-426e-aa64-9b433b7d5179">
              <TableID>dbo_Order_Fact</TableID>
              <ColumnID>Quantity</ColumnID>
            </Source>
          </Source>
        </Measure>
        <Measure dwd:design-time-name="8bd43d7b-a60a-45ce-9cf4-b294e5e56aaa">
          <ID>Discount</ID>
          <Name>Discount</Name>
          <Source dwd:design-time-name="ef4d1826-a184-4cdc-8a6c-eaa770ed70ef">
            <DataType>Single</DataType>
            <Source xsi:type="ColumnBinding" dwd:design-time-name="dfe19e26-64e6-4495-8ccb-05c028eb3fe8">
              <TableID>dbo_Order_Fact</TableID>
              <ColumnID>Discount</ColumnID>
            </Source>
          </Source>
        </Measure>
        <Measure dwd:design-time-name="5e39aa68-267c-402d-90c4-bddcfcf16446">
          <ID>Unit Price</ID>
          <Name>Unit Price</Name>
          <Source dwd:design-time-name="d8e7dddd-532f-4e96-beed-9400c84375dd">
            <DataType>Double</DataType>
            <Source xsi:type="ColumnBinding" dwd:design-time-name="83fa3fc5-acd5-4e28-a278-be45332ea2c4">
              <TableID>dbo_Order_Fact</TableID>
              <ColumnID>UnitPrice</ColumnID>
            </Source>
          </Source>
        </Measure>
        <Measure dwd:design-time-name="86b38165-94d7-4ab6-9904-0f881f3a93ef">
          <ID>Units In Stock</ID>
          <Name>Units In Stock</Name>
          <Source dwd:design-time-name="e356d521-af0a-4eaf-8218-07835ad266bf">
            <DataType>Integer</DataType>
            <Source xsi:type="ColumnBinding" dwd:design-time-name="f8d6da10-c2a4-4f95-8a25-15311827a0a4">
              <TableID>dbo_Order_Fact</TableID>
              <ColumnID>UnitsInStock</ColumnID>
            </Source>
          </Source>
        </Measure>
        <Measure dwd:design-time-name="685387dd-8628-445a-8c19-32a512d1e5a8">
          <ID>Units In Order</ID>
          <Name>Units In Order</Name>
          <Source dwd:design-time-name="fb4bc23f-16bd-4ce1-98f8-8d866f7081e3">
            <DataType>Integer</DataType>
            <Source xsi:type="ColumnBinding" dwd:design-time-name="aaa13d69-09f1-4ab1-b2c6-40ad3cfe7645">
              <TableID>dbo_Order_Fact</TableID>
              <ColumnID>UnitsInOrder</ColumnID>
            </Source>
          </Source>
        </Measure>
      </Measures>
      <StorageMode>Molap</StorageMode>
      <ProcessingMode>Regular</ProcessingMode>
      <Dimensions>
        <Dimension xsi:type="RegularMeasureGroupDimension" dwd:design-time-name="a01acbfe-5283-4f67-979c-d092310dc1f8">
          <CubeDimensionID>Product Dim</CubeDimensionID>
          <Attributes>
            <Attribute dwd:design-time-name="f880a562-8eba-4bca-8de0-d8d3386e68c0">
              <AttributeID>Product ID</AttributeID>
              <KeyColumns>
                <KeyColumn dwd:design-time-name="c21d8b24-a3b6-4b50-837b-a0e11ac04713">
                  <DataType>Integer</DataType>
                  <Source xsi:type="ColumnBinding" dwd:design-time-name="b7417e67-01b2-45d0-9c1b-0fd9286cad72">
                    <TableID>dbo_Order_Fact</TableID>
                    <ColumnID>ProductID</ColumnID>
                  </Source>
                </KeyColumn>
              </KeyColumns>
              <Type>Granularity</Type>
            </Attribute>
          </Attributes>
        </Dimension>
        <Dimension xsi:type="RegularMeasureGroupDimension" dwd:design-time-name="39b185f3-770c-40f0-8eca-fb4147808dab">
          <CubeDimensionID>Customer Dim</CubeDimensionID>
          <Attributes>
            <Attribute dwd:design-time-name="936979f4-1e45-4465-a7b3-3148d487cc16">
              <AttributeID>Customer ID</AttributeID>
              <KeyColumns>
                <KeyColumn dwd:design-time-name="1d54b4c3-4b27-40ff-a5ec-ffc6bd63b618">
                  <NullProcessing>UnknownMember</NullProcessing>
                  <DataType>WChar</DataType>
                  <DataSize>5</DataSize>
                  <Source xsi:type="ColumnBinding" dwd:design-time-name="76235d76-0645-4736-98dd-6f2cc4ce6ffb">
                    <TableID>dbo_Order_Fact</TableID>
                    <ColumnID>CustomerID</ColumnID>
                  </Source>
                </KeyColumn>
              </KeyColumns>
              <Type>Granularity</Type>
            </Attribute>
          </Attributes>
        </Dimension>
        <Dimension xsi:type="RegularMeasureGroupDimension" dwd:design-time-name="84a6d15f-671a-438c-90e5-ca7d0783ba96">
          <CubeDimensionID>Employee Dim</CubeDimensionID>
          <Attributes>
            <Attribute dwd:design-time-name="4c386cd6-242b-4da1-9f22-5b40cbf47c95">
              <AttributeID>Employee ID</AttributeID>
              <KeyColumns>
                <KeyColumn dwd:design-time-name="6cd374d8-ef6c-4963-bc3f-3b9949c66fd3">
                  <NullProcessing>UnknownMember</NullProcessing>
                  <DataType>Integer</DataType>
                  <Source xsi:type="ColumnBinding" dwd:design-time-name="b460b4fb-41c3-4f30-85f5-1f696c9d35d8">
                    <TableID>dbo_Order_Fact</TableID>
                    <ColumnID>EmployeeID</ColumnID>
                  </Source>
                </KeyColumn>
              </KeyColumns>
              <Type>Granularity</Type>
            </Attribute>
          </Attributes>
        </Dimension>
        <Dimension xsi:type="RegularMeasureGroupDimension" dwd:design-time-name="374172cf-3bb3-472c-a13d-c2ee34752a88">
          <CubeDimensionID>Date Dim</CubeDimensionID>
          <Attributes>
            <Attribute dwd:design-time-name="17269aa3-6807-4d2d-9b26-5171950d29cb">
              <AttributeID>Date Key</AttributeID>
              <KeyColumns>
                <KeyColumn dwd:design-time-name="4b3365ba-7971-4be6-8fd7-7ea94b32b353">
                  <NullProcessing>UnknownMember</NullProcessing>
                  <DataType>Integer</DataType>
                  <Source xsi:type="ColumnBinding" dwd:design-time-name="cd0dc467-937e-472d-ab7a-74b1d85df615">
                    <TableID>dbo_Order_Fact</TableID>
                    <ColumnID>Date</ColumnID>
                  </Source>
                </KeyColumn>
              </KeyColumns>
              <Type>Granularity</Type>
            </Attribute>
          </Attributes>
        </Dimension>
      </Dimensions>
      <Partitions />
    </MeasureGroup>
    <MeasureGroup dwd:design-time-name="eff147a8-5262-4317-94b9-8df199fdd1f3">
      <ID>Date Dim</ID>
      <Name>Date Dim</Name>
      <CreatedTimestamp>0001-01-01T03:00:00Z</CreatedTimestamp>
      <LastSchemaUpdate>0001-01-01T03:00:00Z</LastSchemaUpdate>
      <LastProcessed>0001-01-01T03:00:00Z</LastProcessed>
      <State>Unprocessed</State>
      <Measures>
        <Measure dwd:design-time-name="c02cefd6-e607-4dd5-a855-c3c64b63e455">
          <ID>Day</ID>
          <Name>Day</Name>
          <Source dwd:design-time-name="4e0bbb54-62ec-41c8-bcfe-4455758f9f62">
            <DataType>UnsignedInt</DataType>
            <Source xsi:type="ColumnBinding" dwd:design-time-name="c7776bb8-e88d-4a0a-ade5-ccc298660463">
              <TableID>dbo_Date_Dim</TableID>
              <ColumnID>Day</ColumnID>
            </Source>
          </Source>
        </Measure>
        <Measure dwd:design-time-name="ad7ea6c0-0c62-4afd-b6f7-45a97a6ed005">
          <ID>Month</ID>
          <Name>Month</Name>
          <Source dwd:design-time-name="9274e6a3-3996-4133-a8eb-63eda2195986">
            <DataType>UnsignedInt</DataType>
            <Source xsi:type="ColumnBinding" dwd:design-time-name="47d08a07-f5ad-4f60-b2b6-b41b5db0438d">
              <TableID>dbo_Date_Dim</TableID>
              <ColumnID>Month</ColumnID>
            </Source>
          </Source>
        </Measure>
        <Measure dwd:design-time-name="40e8ea94-f134-488f-b433-0f1de24b2258">
          <ID>Quarter</ID>
          <Name>Quarter</Name>
          <Source dwd:design-time-name="2f551702-189e-4922-a970-bd95b9ebae41">
            <DataType>UnsignedInt</DataType>
            <Source xsi:type="ColumnBinding" dwd:design-time-name="baeeab99-8319-4a21-b1e3-9f8a8dba4609">
              <TableID>dbo_Date_Dim</TableID>
              <ColumnID>Quarter</ColumnID>
            </Source>
          </Source>
        </Measure>
        <Measure dwd:design-time-name="e7933fc3-6411-457f-b3c2-eaf1523aa30a">
          <ID>Year</ID>
          <Name>Year</Name>
          <Source dwd:design-time-name="00d7a79f-ccb7-496b-afbf-1014e49ea6c0">
            <DataType>Integer</DataType>
            <Source xsi:type="ColumnBinding" dwd:design-time-name="eb783514-986c-4acb-8e04-167297dd0b34">
              <TableID>dbo_Date_Dim</TableID>
              <ColumnID>Year</ColumnID>
            </Source>
          </Source>
        </Measure>
      </Measures>
      <StorageMode>Molap</StorageMode>
      <ProcessingMode>Regular</ProcessingMode>
      <Dimensions>
        <Dimension xsi:type="DegenerateMeasureGroupDimension" dwd:design-time-name="9c2588e1-c186-4f5a-a236-7a487acd96ba">
          <CubeDimensionID>Date Dim</CubeDimensionID>
          <Attributes>
            <Attribute dwd:design-time-name="3befc66f-fd47-49aa-a1ac-64889df59aa2">
              <AttributeID>Date Key</AttributeID>
              <KeyColumns>
                <KeyColumn dwd:design-time-name="6ea944f7-2735-4c2f-aba4-75c5281b8c21">
                  <DataType>Integer</DataType>
                  <Source xsi:type="ColumnBinding" dwd:design-time-name="485d30c3-dd45-43c2-af53-744ddece335c">
                    <TableID>dbo_Date_Dim</TableID>
                    <ColumnID>DateKey</ColumnID>
                  </Source>
                </KeyColumn>
              </KeyColumns>
              <Type>Granularity</Type>
            </Attribute>
          </Attributes>
        </Dimension>
      </Dimensions>
      <Partitions />
    </MeasureGroup>
  </MeasureGroups>
  <Source dwd:design-time-name="c0d9fcc8-5eb7-47ed-b9d8-d9b09d30498f">
    <DataSourceViewID>Northwind DW</DataSourceViewID>
  </Source>
  <MdxScripts>
    <MdxScript dwd:design-time-name="5388164e-1a03-4bbb-a342-3c1d897693a0">
      <ID>MdxScript</ID>
      <Name>MdxScript</Name>
      <CreatedTimestamp>0001-01-01T03:00:00Z</CreatedTimestamp>
      <LastSchemaUpdate>0001-01-01T03:00:00Z</LastSchemaUpdate>
      <Commands>
        <Command>
          <Text>/*
The CALCULATE command controls the aggregation of leaf cells in the cube.
If the CALCULATE command is deleted or modified, the data within the cube is affected.
You should edit this command only if you manually specify how the cube is aggregated.
*/
CALCULATE; 
CREATE MEMBER CURRENTCUBE.[Measures].OrderPrice
 AS ( [Measures].[Quantity] * [Measures].[Unit Price] ), 
FORMAT_STRING = "Currency", 
VISIBLE = 1 ,  ASSOCIATED_MEASURE_GROUP = 'Order Fact'  ; 
CREATE MEMBER CURRENTCUBE.[Measures].DiscountedAmount
 AS OrderPrice * discount, 
FORMAT_STRING = "Currency", 
VISIBLE = 1 ,  ASSOCIATED_MEASURE_GROUP = 'Order Fact'  ; 
CREATE MEMBER CURRENTCUBE.[Measures].TotalPrice
 AS OrderPrice - DiscountedAmount, 
VISIBLE = 1 ,  ASSOCIATED_MEASURE_GROUP = 'Order Fact'  ; 
CREATE MEMBER CURRENTCUBE.[Measures].RemainingStock
 AS [Measures].[Units In Stock] - [Measures].[Quantity], 
VISIBLE = 1 ,  ASSOCIATED_MEASURE_GROUP = 'Order Fact'  ; </Text>
        </Command>
      </Commands>
    </MdxScript>
  </MdxScripts>
</Cube>